{
 "pathFFMPEG":"/usr/local/bin/ffmpeg",
 "pathImageMagick":"/opt/csw/bin/convert",
 "pathFile":"/usr/bin",
 "sourceDir" : "/home/ubu804/Videos/gad/sourceDir",
 "workingDir" : "/home/ubu804/Videos/gad/temp",
 "outputDir" : "/home/ubu804/Videos/gad/targetDir",
 "jobsPath" : "/content/components/transcodingServer/jobs",
 "GAD_user":"admin",
 "GAD_password":"admin",
 "threadsTotal":"16",
 "threadsH264":"6",
 "threadsOthers":"1"
}                      