{
		"jcr:primaryType" : "nt:unstructured",
	    "description" : "IES Channel Web Flash High Quality",
	    "output_mimetype" : "video/x-flv",
	    "output_extension" : "flv",
		"command" : "ffmpeg",
		"conversion_type" : "video",		
		"params" : "-s 384x288 -b 768k -ar 22050 -ab 96k -r 25"
}