{
	"jcr:primaryType" : "nt:unstructured",
	"description" : "Medium quality ogv conversion",
	"conversion_type" : "video",
	"output_mimetype" : "video/ogg",
	"output_extension" : "ogv",
	"command" : "ffmpeg",		
	"params" : "-f flv -ar 44100 "
}